1,1,deluxe.jpg,Deluxe Room,360000,-Maks. 2 orang,Kamar dirancang modern minimalis demi kenyamanan Anda selama menginap di Hotel 88 Diponegoro.
2,1,junior.jpg,Junior Suite room,500000,-Maks. 2 orang,a
3,2,standard.jpg,Standard Room,245000,-Maks. 2 orang,a
4,2,deluxe.jpg,Deluxe Room,302000,-Maks. 2 orang,a
5,3,deluxTwinBeds.jpg,Deluxe Twin Beds Room Only,449090,-Maks. 2 orang,a
6,3,deluxDouble.jpg,Deluxe Double Bed Room Only,449090,-Maks. 2 orang,a
7,3,deluxTwin.jpg,Deluxe Twin,579090,-Maks. 2 orang,a
8,4,standard.jpg,Standard Room,235294,-Maks. 2 orang,a
9,4,superior.jpg,Superior Room,294118,-Maks. 2 orang,a
10,4,deluxe.jpg,Deluxe Room,340557,-Maks. 2 orang,a
11,5,deluxe.jpg,DELUXE,220000,-Maks. 2 orang,a
12,5,junior.jpg,JUNIOR SUITE,244000,-Maks. 2 orang,a
13,5,suite.jpg,SUITE ROOM,264000,-Maks. 2 orang,a
14,6,deluxe.jpg,Deluxe Room,310000,-Maks. 2 orang,a
15,6,deluxExecutive.jpg,Deluxe Executive Room,350000,-Maks. 2 orang,a
16,6,platinum.jpg,Platinum Room,442000,-Maks. 2 orang,a
17,8,superior.jpg,Superior Room Only,421080,-Maks. 2 orang,a
18,8,superior.jpg,Superior Room,493680,-Maks. 2 orang,a
19,8,deluxe.jpg,Deluxe Room Only,542080,-Maks. 2 orang,a
20,8,deluxe.jpg,Deluxe Room,614680,-Maks. 2 orang,a
21,9,superior.jpg,Superior Room Only,400000,-Maks. 2 orang,a
22,9,superiorBreakfest.jpg,Superior Breakfast,460000,-Maks. 2 orang,a
23,9,deluxeBreakfast.jpg,Deluxe Breakfast,500000,-Maks. 2 orang,a
24,9,executiveBreakfast.jpg,Executive Breakfast,800000,-Maks. 2 orang,a
25,10,gold.jpg,Gold Standard Room Only,353000,-Maks. 2 orang,a
26,10,platinumSuperior.jpg,Platinum Superior,507000,-Maks. 2 orang,a
27,10,shappire.jpg,Sapphire Deluxe,636000,-Maks. 2 orang,a
28,11,standard.jpg,Standart Room,100000,-Maks. 2 orang,a
29,11,deluxe.jpg,Deluxe Room,200000,-Maks. 2 orang,a
30,11,superiorA.jpg,Superior A,250000,-Maks. 2 orang,a
31,13,superior.jpg,Superior Room,352941,-Maks. 2 orang,a
32,13,mulia.jpg,Mulia Suite Room,647059,-Maks. 2 orang,a
33,15,standardTwin.jpg,Standard Twin Room,209874,-Maks. 2 orang,a
34,15,standardDouble.jpg,Standard Double Room,215120,-Maks. 2 orang,a
35,15,deluxTwin.jpg,Deluxe Twin Room,251549,-Maks. 2 orang,a
36,15,deluxDouble.jpg,Deluxe Double Room,254684,-Maks. 2 orang,a
37,15,suiteDouble.jpg,Suite Double Room,352169,-Maks. 2 orang,a
38,15,suiteFamily.jpg,Suite Family Room,530593,-Maks. 2 orang,a
39,16,rose.jpg,Rose Room,280000,-Maks. 2 orang,a
40,16,orchid.jpg,Orchid Room,300000,-Maks. 2 orang,a
41,16,jasmine.jpg,Jasmine Room,340000,-Maks. 2 orang,a
42,17,standardDouble.jpg,Standard Twin Room,214098,-Maks. 2 orang,a
43,17,standardDouble.jpg,Standard Double Room,214542,-Maks. 2 orang,a
44,17,deluxTwin.jpg,Deluxe Twin Room,283735,-Maks. 2 orang,a
45,17,deluxDouble.jpg,Deluxe Double Room,283735,-Maks. 2 orang,a
46,17,suiteDouble.jpg,Suite Double,422926,-Maks. 2 orang,a
47,18,standard.jpg,Standard Room,160000,-Maks. 2 orang,a
48,18,vip.jpg,VIP Room [GR],200000,-Maks. 2 orang,a
49,18,suite.jpg,Suite Room [RR],200000,-Maks. 2 orang,a
50,19,standardTwin.jpg,Standard Twin Room,249727,-Maks. 2 orang,a
51,19,standardDouble.jpg,Standard Double Room,255971,-Maks. 2 orang,a
52,19,deluxTwin.jpg,Deluxe Twin Room,293429,-Maks. 2 orang,a
53,19,deluxDouble.jpg,Deluxe Double Room,299673,-Maks. 2 orang,a
54,19,suiteDouble.jpg,suite double,399563,-Maks. 2 orang,a
55,20,deluxDouble.jpg,Deluxe Double Room,266642,-Maks. 2 orang,a
56,20,suiteDouble.jpg,Suite Double,332046,-Maks. 2 orang,a
57,20,suiteTwin.jpg,Suite Twin,342107,-Maks. 2 orang,a
58,20,suiteFamily.jpg,Suite Family,723205,-Maks. 2 orang,a
59,21,deluxeFan.jpg,Deluxe Fan Room Only,150000,-Maks. 2 orang,a
60,21,deluxeAc.jpg,Deluxe AC,250000,-Maks. 2 orang,a
61,21,superior.jpg,Superior Room,400000,-Maks. 2 orang,a
62,21,family.jpg,Family Suite Room,450000,-Maks. 2 orang,a
63,21,president.jpg,President Suite,1000000,-Maks. 2 orang,a
64,22,standardDouble.jpg,Standard Double Room,194053,-Maks. 2 orang,a
65,22,deluxDouble.jpg,Deluxe Double Room,194053,-Maks. 2 orang,a
66,23,standard.jpg,Standard Room,199000,-Maks. 2 orang,a
67,24,standard.jpg,Standard Room,80000,-Maks. 2 orang,a
68,24,deluxe.jpg,Deluxe Room Only,105000,-Maks. 2 orang,a
69,24,executive.jpg,Executive Room Only,130000,-Maks. 2 orang,a
70,25,standard.jpg,Standard Room,255000,-Maks. 2 orang,a
71,25,deluxe.jpg,Deluxe Room,289000,-Maks. 2 orang,a
72,26,deluxe.jpg,Deluxe room only,165000,-Maks. 2 orang,a
73,26,deluxeSuite.jpg,Deluxe Suite Room Only,175000,-Maks. 2 orang,a
74,26,executive.jpg,Executive Room Only,190000,-Maks. 2 orang,a
75,27,deluxe.jpg,Deluxe Room,301500,-Maks. 2 orang,a
76,27,executive.jpg,Executive Room,346500,-Maks. 2 orang,a
77,28,standardTwin.jpg,Standard Twin Room with Breakfast - Special Promo 7,164603,-Maks. 2 orang,a
78,28,standardTwin.jpg,Standard Twin Room with Breakfast - Special Promo 7,176993,-Maks. 2 orang,a
79,28,standardDouble.jpg,Standard Double Room with Breakfast - Special Promo 7,164603,-Maks. 2 orang,a
80,28,standardDouble.jpg,Standard Double Room with Breakfast - Special Promo 7,176993,-Maks. 2 orang,a
81,28,superiorTwin.jpg,Superior Twin Room with Breakfast - Special Promo 7,212172,-Maks. 2 orang,a
82,28,superiorDouble.jpg,Superior Double Room with Breakfast - Special Promo 7,212172,-Maks. 2 orang,a
83,29,redDoorzSale.jpg,RedDoorz SALE 99K,99000,-Maks. 2 orang,a
84,29,redDoorzSale.jpg,RedDoorz SALE 125K,125000,-Maks. 2 orang,a
85,29,redDoorzTwin.jpg,RedDoorz Twin Room - Basic Deals Promotion,142500,-Maks. 2 orang,a
86,29,redDoorzTwin.jpg,RedDoorz Twin Room,150000,-Maks. 2 orang,a
87,29,redDoorzRoom.jpg,RedDoorz Room - Basic Deals Promotion,142500,-Maks. 2 orang,a
88,29,redDoorzRoom.jpg,RedDoorz Room,150000,-Maks. 2 orang,a
89,29,redDoorzRoomPremium.jpg,RedDoorz Premium Room - Basic Deals Promotion,161500,-Maks. 2 orang,a
90,29,redDoorzRoomPremium.jpg,RedDoorz Premium Room,170000,-Maks. 2 orang,a
91,29,redDoorzTwin.jpg,RedDoorz Twin Room with Breakfast,210000,-Maks. 2 orang,a
92,29,redDoorzRoom.jpg,RedDoorz Room with Breakfast,210000,-Maks. 2 orang,a
93,29,redDoorzRoomPremium.jpg,RedDoorz Premium Room with Breakfast,230000,-Maks. 2 orang,a
94,30,redDoorzRoom.jpg,RedDoorz Room - Basic Deals Promotion,176700,-Maks. 2 orang,a
95,30,redDoorzRoom.jpg,RedDoorz Room,186000,-Maks. 2 orang,a
96,30,redDoorzRoomPremium.jpg,RedDoorz Premium Room - Basic Deals Promotion,200405,-Maks. 2 orang,a
97,30,redDoorzRoomPremium.jpg,RedDoorz Premium Room,211000,-Maks. 2 orang,a
98,31,standardDouble.jpg,Standard Double Room,144995,-Maks. 2 orang,a
99,31,deluxTwin.jpg,Deluxe Twin Room,166213,-Maks. 2 orang,a
100,32,standardTwin.jpg,Standard Twin Room,182034,-Maks. 2 orang,a
101,32,standardDouble.jpg,Standard Double Room,186585,-Maks. 2 orang,a
102,33,standardDouble.jpg,Standard Double Room,140867,-Maks. 2 orang,a
103,34,villaBigDeal.jpg,Villa Jabon Room Only - Big Deal,550357,-Maks. 2 orang,a
104,34,villaRoom.jpg,Villa Jabon Room Only - Special Campaign,575000,-Maks. 2 orang,a
105,34,villaRoom.jpg,Villa Jabon Room Only,821429,-Maks. 2 orang,a
106,34,villaMahoni.jpg,Villa Mahoni Room Only - Big Deal,550357,-Maks. 2 orang,a
107,34,villaMahoni.jpg,Villa Mahoni Room Only - Special Campaign,575000,-Maks. 2 orang,a
108,34,villaMahoni.jpg,Villa Mahoni Room Only,821429,-Maks. 2 orang,a
109,34,villaRImba.jpg,Villa Rimba Room Only - Big Deal,550357,-Maks. 2 orang,a
110,34,villaRImba.jpg,Villa Rimba Room Only - Special Campaign,575000,-Maks. 2 orang,a
111,34,villaRImba.jpg,Villa Rimba Room Only,821429,-Maks. 2 orang,a
112,34,villaKajang.jpg,Villa Kajang Room Only - Big Deal,646072,-Maks. 2 orang,a
113,34,villaKajang.jpg,Villa Kajang Room Only - Special Campaign,675000,-Maks. 2 orang,a
114,34,villaKajang.jpg,Villa Kajang Room Only,964287,-Maks. 2 orang,a
115,34,villaDjati.jpg,Villa Djati Room Only - Big Dea,646072,-Maks. 2 orang,a
116,34,villaDjati.jpg,Villa Djati Room Only - Special Campaign,675000,-Maks. 2 orang,a
117,34,villaDjati.jpg,Villa Djati Room Only,964287,-Maks. 2 orang,a
118,34,villaSengon.jpg,Villa Sengon Room Only - Big Deal,981071,-Maks. 2 orang,a
119,34,villaSengon.jpg,Villa Sengon Room Only - Special Campaign,1025000,-Maks. 2 orang,a
120,34,villaSengon.jpg,Villa Sengon Room Only,1464286,-Maks. 2 orang,a
121,35,superior.jpg,Superior Room,185000,-Maks. 2 orang,a
122,35,deluxe.jpg,Deluxe Room 3 bed,325000,-Maks. 2 orang,a
123,35,deluxe.jpg,Deluxe Room 4 bed,325000,-Maks. 2 orang,a
124,36,standardDouble.jpg,Standard Double Room,140867,-Maks. 2 orang,a
125,37,superior.jpg,Superior Room,300000,-Maks. 2 orang,a
126,37,family.jpg,Family Room,600000,-Maks. 2 orang,a
127,38,homestay.jpg,Homestay 2 Bedroom,350000,-Maks. 2 orang,a
